# vtk DataFile Version 3.0
vtk output
ASCII
DATASET POLYDATA
POINTS 20 float
400 300 200
400 300 200
400 300 200
400 300 200
470 300 141
400 406 141
329 300 141
400 193 141
500 300 0
400 450 0
300 300 0
400 150 0
470 300 -141
400 406 -141
329 300 -141
400 193 -141
400 300 -200
400 300 -200
400 300 -200
400 300 -200
POLYGONS 24 96
3 5 4 0
3 6 5 0
3 7 6 0
3 4 7 0
3 4 5 8
3 5 9 8
3 5 6 9
3 6 10 9
3 6 7 10
3 7 11 10
3 7 4 11
3 4 8 11
3 8 9 12
3 9 13 12
3 9 10 13
3 10 14 13
3 10 11 14
3 11 15 14
3 11 8 15
3 8 12 15
3 12 13 16
3 13 14 16
3 14 15 16
3 15 12 16
